{
 "actions": [],
 "allow_rename": 1,
 "creation": "2023-03-26 21:50:41.443838",
 "default_view": "List",
 "doctype": "DocType",
 "editable_grid": 1,
 "engine": "InnoDB",
 "field_order": [
  "date",
  "annee_fiscale",
  "cb01",
  "participant",
  "conjoint",
  "denomination",
  "cb02",
  "montant_total",
  "mode_versement",
  "section_break_9",
  "amended_from",
  "adresse",
  "code_postal",
  "commune",
  "column_break_14",
  "email"
 ],
 "fields": [
  {
   "fieldname": "participant",
   "fieldtype": "Link",
   "label": "Donateur",
   "options": "Participant",
   "reqd": 1
  },
  {
   "fieldname": "conjoint",
   "fieldtype": "Link",
   "label": "Conjoint",
   "options": "Participant"
  },
  {
   "fieldname": "denomination",
   "fieldtype": "Data",
   "in_list_view": 1,
   "in_standard_filter": 1,
   "label": "D\u00e9nomination (utilis\u00e9e pour le re\u00e7u fiscal)"
  },
  {
   "fieldname": "annee_fiscale",
   "fieldtype": "Link",
   "in_list_view": 1,
   "in_standard_filter": 1,
   "label": "Ann\u00e9e fiscal",
   "options": "Fiscal Year",
   "reqd": 1
  },
  {
   "fieldname": "montant_total",
   "fieldtype": "Currency",
   "in_list_view": 1,
   "label": "Montant total",
   "reqd": 1
  },
  {
   "fieldname": "amended_from",
   "fieldtype": "Link",
   "label": "Amended From",
   "no_copy": 1,
   "options": "Recu",
   "print_hide": 1,
   "read_only": 1
  },
  {
   "fieldname": "cb01",
   "fieldtype": "Column Break"
  },
  {
   "fieldname": "cb02",
   "fieldtype": "Column Break"
  },
  {
   "fieldname": "section_break_9",
   "fieldtype": "Section Break"
  },
  {
   "default": "Today",
   "fieldname": "date",
   "fieldtype": "Date",
   "label": "Date"
  },
  {
   "fetch_from": "participant.adresse",
   "fetch_if_empty": 1,
   "fieldname": "adresse",
   "fieldtype": "Small Text",
   "label": "Adresse"
  },
  {
   "fetch_from": "participant.code_postal",
   "fetch_if_empty": 1,
   "fieldname": "code_postal",
   "fieldtype": "Data",
   "label": "Code Postal"
  },
  {
   "fetch_from": "participant.commune",
   "fetch_if_empty": 1,
   "fieldname": "commune",
   "fieldtype": "Data",
   "label": "Commune"
  },
  {
   "fieldname": "mode_versement",
   "fieldtype": "Data",
   "label": "Mode de versement"
  },
  {
   "fetch_from": "participant.mel",
   "fetch_if_empty": 1,
   "fieldname": "email",
   "fieldtype": "Data",
   "label": "Email",
   "options": "Email"
  },
  {
   "fieldname": "column_break_14",
   "fieldtype": "Column Break"
  }
 ],
 "is_submittable": 1,
 "links": [],
 "modified": "2023-04-21 14:23:07.891978",
 "modified_by": "Administrator",
 "module": "PRCP",
 "name": "Recu",
 "naming_rule": "By script",
 "owner": "Administrator",
 "permissions": [
  {
   "create": 1,
   "delete": 1,
   "email": 1,
   "export": 1,
   "print": 1,
   "read": 1,
   "report": 1,
   "role": "System Manager",
   "select": 1,
   "share": 1,
   "write": 1
  },
  {
   "create": 1,
   "email": 1,
   "export": 1,
   "print": 1,
   "read": 1,
   "report": 1,
   "role": "PRCP Saisie",
   "select": 1,
   "share": 1,
   "write": 1
  },
  {
   "email": 1,
   "export": 1,
   "print": 1,
   "read": 1,
   "report": 1,
   "role": "PRCP Consultation",
   "select": 1,
   "share": 1
  }
 ],
 "sort_field": "modified",
 "sort_order": "DESC",
 "states": []
}