{
 "actions": [],
 "allow_rename": 1,
 "creation": "2022-04-12 14:32:27.312955",
 "doctype": "DocType",
 "editable_grid": 1,
 "engine": "InnoDB",
 "field_order": [
  "date",
  "montant"
 ],
 "fields": [
  {
   "allow_in_quick_entry": 1,
   "default": "12",
   "fieldname": "montant",
   "fieldtype": "Currency",
   "in_list_view": 1,
   "label": "Montant"
  },
  {
   "default": "Today",
   "fieldname": "date",
   "fieldtype": "Date",
   "in_list_view": 1,
   "label": "Date",
   "reqd": 1
  }
 ],
 "hide_toolbar": 1,
 "istable": 1,
 "links": [],
 "modified": "2022-12-14 13:20:14.914631",
 "modified_by": "Administrator",
 "module": "PRCP",
 "name": "Paiement",
 "owner": "Administrator",
 "permissions": [],
 "sort_field": "modified",
 "sort_order": "DESC",
 "states": []
}