[
 {
  "bulk_actions": 1,
  "dashboard": 1,
  "desk_access": 1,
  "disabled": 0,
  "docstatus": 0,
  "doctype": "Role",
  "form_sidebar": 1,
  "home_page": "/prcp",
  "is_custom": 0,
  "list_sidebar": 1,
  "modified": "2022-09-23 17:45:17.637022",
  "name": "PRCP Saisie",
  "notifications": 1,
  "restrict_to_domain": null,
  "role_name": "PRCP Saisie",
  "search_bar": 1,
  "timeline": 1,
  "two_factor_auth": 0,
  "view_switcher": 1
 },
 {
  "bulk_actions": 0,
  "dashboard": 1,
  "desk_access": 1,
  "disabled": 0,
  "docstatus": 0,
  "doctype": "Role",
  "form_sidebar": 0,
  "home_page": "/prcp",
  "is_custom": 0,
  "list_sidebar": 0,
  "modified": "2022-09-23 17:45:09.750857",
  "name": "PRCP Consultation",
  "notifications": 1,
  "restrict_to_domain": null,
  "role_name": "PRCP Consultation",
  "search_bar": 1,
  "timeline": 1,
  "two_factor_auth": 0,
  "view_switcher": 1
 }
]